^D:\DROPBOX\UNIVER\8 СЕМЕСТР\SHIT\CLIENTSHARP\WINDOWSFORMSAPPLICATION1\MAINWINDOW.RESX|D:\DROPBOX\UNIVER\8 СЕМЕСТР\SHIT\CLIENTSHARP\WINDOWSFORMSAPPLICATION1\PROPERTIES\RESOURCES.RESX
D:\DROPBOX\UNIVER\8 семестр\SHIT\CLIENTSHARP\WINDOWSFORMSAPPLICATION1\OBJ\RELEASE\BATTLESHIPS.MAINWINDOW.RESOURCES
D:\DROPBOX\UNIVER\8 семестр\SHIT\CLIENTSHARP\WINDOWSFORMSAPPLICATION1\OBJ\RELEASE\WINDOWSFORMSAPPLICATION1.PROPERTIES.RESOURCES.RESOURCES
^D:\DROPBOX\UNIVER\8 СЕМЕСТР\SHIT\CLIENTSHARP\WINDOWSFORMSAPPLICATION1\PROPERTIES\RESOURCES.RESX|D:\DROPBOX\UNIVER\8 СЕМЕСТР\SHIT\CLIENTSHARP\WINDOWSFORMSAPPLICATION1\VIEWS\MAINWINDOW.RESX
D:\DROPBOX\UNIVER\8 семестр\SHIT\CLIENTSHARP\WINDOWSFORMSAPPLICATION1\OBJ\RELEASE\BATTLESHIPS.MAINWINDOW.RESOURCES
D:\DROPBOX\UNIVER\8 семестр\SHIT\CLIENTSHARP\WINDOWSFORMSAPPLICATION1\OBJ\RELEASE\WINDOWSFORMSAPPLICATION1.PROPERTIES.RESOURCES.RESOURCES
^D:\DEPOT\BATTLESHIPS\SOURCE\PROPERTIES\RESOURCES.RESX|D:\DEPOT\BATTLESHIPS\SOURCE\VIEWS\MAINWINDOW.RESX
D:\DEPOT\BATTLESHIPS\SOURCE\OBJ\RELEASE\BATTLESHIPS.MAINWINDOW.RESOURCES
D:\DEPOT\BATTLESHIPS\SOURCE\OBJ\RELEASE\WINDOWSFORMSAPPLICATION1.PROPERTIES.RESOURCES.RESOURCES
^D:\DEPOT\BATTLESHIPS\SOURCE\PROPERTIES\RESOURCES.RESX|D:\DEPOT\BATTLESHIPS\SOURCE\VIEWS\MAINWINDOW.RESX|D:\DEPOT\BATTLESHIPS\SOURCE\VIEWS\OPENNETWORKCONNECTION.RESX
D:\DEPOT\BATTLESHIPS\SOURCE\OBJ\RELEASE\BATTLESHIPS.MAINWINDOW.RESOURCES
D:\DEPOT\BATTLESHIPS\SOURCE\OBJ\RELEASE\WINDOWSFORMSAPPLICATION1.PROPERTIES.RESOURCES.RESOURCES
D:\DEPOT\BATTLESHIPS\SOURCE\OBJ\RELEASE\BATTLESHIPS.OPENNETWORKCONNECTION.RESOURCES
^D:\DEPOT\BATTLESHIPS\SOURCE\PROPERTIES\RESOURCES.RESX|D:\DEPOT\BATTLESHIPS\SOURCE\VIEWS\GAMECLIENT\OPENNETWORKCONNECTION.RESX|D:\DEPOT\BATTLESHIPS\SOURCE\VIEWS\MAINWINDOW.RESX|D:\DEPOT\BATTLESHIPS\SOURCE\VIEWS\MAPEDITOR\SELECTMAPSIZEDIALOG.RESX
D:\DEPOT\BATTLESHIPS\SOURCE\OBJ\RELEASE\BATTLESHIPS.MAINWINDOW.RESOURCES
D:\DEPOT\BATTLESHIPS\SOURCE\OBJ\RELEASE\BATTLESHIPS.OPENNETWORKCONNECTION.RESOURCES
D:\DEPOT\BATTLESHIPS\SOURCE\OBJ\RELEASE\BATTLESHIPS.SELECTMAPSIZEDIALOG.RESOURCES
D:\DEPOT\BATTLESHIPS\SOURCE\OBJ\RELEASE\BATTLESHIPS.PROPERTIES.RESOURCES.RESOURCES
